# counting is correct, sorting, against (snapshot)__spec_ids{hierarchical_count_table$event_count;hierarchical_count_table$event_count_display;hierarchical_count_table$sorted_table_display;hierarchical_count_table$total_column_display}

    Code
      x
    Output
      $df
      # A tibble: 28 x 7
         lvl2  lvl1  group     N subjid     perc `\035lvl`
         <fct> <fct> <fct> <int> <list>    <dbl>     <dbl>
       1 A2    A1    GA        1 <fct [1]>   100         1
       2 A2    A1    GB        1 <fct [1]>   100         1
       3 A2    A1    GC        1 <fct [1]>    50         1
       4 A2    B1    GA        1 <fct [1]>   100         1
       5 A2    B1    GB        0 <chr [0]>     0         1
       6 A2    B1    GC        0 <chr [0]>     0         1
       7 B2    A1    GA        1 <fct [1]>   100         1
       8 B2    A1    GB        1 <fct [1]>   100         1
       9 B2    A1    GC        0 <chr [0]>     0         1
      10 B2    B1    GA        1 <fct [1]>   100         1
      # i 18 more rows
…
